<svg height='100px' width='100px'  fill="#000000" xmlns="http://www.w3.org/2000/svg" xmlns:xlink="http://www.w3.org/1999/xlink" version="1.1" x="0px" y="0px" viewBox="0 0 48 48" style="enable-background:new 0 0 48 48;" xml:space="preserve"><style type="text/css">
	.st0{fill:#000000;}
	.st1{fill:none;stroke:#000000;stroke-width:2;stroke-linecap:round;stroke-linejoin:round;stroke-miterlimit:10;}
</style><g><g><g><path class="st0" d="M20.9,25.4c-2.2,0-4-1.8-4-4s1.8-4,4-4s4,1.8,4,4S23.1,25.4,20.9,25.4z M20.9,19.4c-1.1,0-2,0.9-2,2     s0.9,2,2,2c1.1,0,2-0.9,2-2S22,19.4,20.9,19.4z"></path></g><g><path class="st0" d="M36.1,22.4H23.9c-0.6,0-1-0.4-1-1s0.4-1,1-1h12.3c0.6,0,1,0.4,1,1S36.7,22.4,36.1,22.4z"></path></g><g><g><path class="st0" d="M28.5,22.4c-0.6,0-1-0.4-1-1v-3c0-0.6,0.4-1,1-1s1,0.4,1,1v3C29.5,21.9,29.1,22.4,28.5,22.4z"></path></g><g><path class="st0" d="M31.7,22.4c-0.6,0-1-0.4-1-1v-5.4c0-0.6,0.4-1,1-1s1,0.4,1,1v5.4C32.7,21.9,32.2,22.4,31.7,22.4z"></path></g><g><path class="st0" d="M34.8,22.4c-0.6,0-1-0.4-1-1v-3c0-0.6,0.4-1,1-1s1,0.4,1,1v3C35.8,21.9,35.4,22.4,34.8,22.4z"></path></g></g></g><g><path class="st0" d="M31.7,36.4H16.3c-0.6,0-1-0.4-1-1s0.4-1,1-1h15.4c0.6,0,1,0.4,1,1S32.2,36.4,31.7,36.4z"></path></g><g><g><path class="st0" d="M12.2,40.5c-2.8,0-5.1-2.3-5.1-5.1c0-2.8,2.3-5.1,5.1-5.1s5.1,2.3,5.1,5.1C17.3,38.2,15,40.5,12.2,40.5z      M12.2,32.3c-1.7,0-3.1,1.4-3.1,3.1c0,1.7,1.4,3.1,3.1,3.1s3.1-1.4,3.1-3.1C15.3,33.7,13.9,32.3,12.2,32.3z"></path></g><g><path class="st0" d="M35.8,40.5c-2.8,0-5.1-2.3-5.1-5.1c0-2.8,2.3-5.1,5.1-5.1s5.1,2.3,5.1,5.1C40.9,38.2,38.6,40.5,35.8,40.5z      M35.8,32.3c-1.7,0-3.1,1.4-3.1,3.1c0,1.7,1.4,3.1,3.1,3.1s3.1-1.4,3.1-3.1C38.9,33.7,37.5,32.3,35.8,32.3z"></path></g></g><g><path class="st0" d="M46.5,36.4h-6.6c-0.6,0-1-0.4-1-1c0-1.7-1.4-3.1-3.1-3.1c-1.7,0-3.1,1.4-3.1,3.1c0,0.6-0.4,1-1,1H16.3    c-0.6,0-1-0.4-1-1c0-1.7-1.4-3.1-3.1-3.1s-3.1,1.4-3.1,3.1c0,0.6-0.4,1-1,1H3.4c-1.6,0-2.9-1.3-2.9-2.9v-1.7    c0-5.3,4.3-9.5,9.5-9.5h1.2C11.8,14,18.6,7.5,27,7.5h0.4c8.4,0,15.2,6.5,15.7,14.8H44c1.9,0,3.5,1.6,3.5,3.5v9.7    C47.5,36,47.1,36.4,46.5,36.4z M40.8,34.4h4.7v-8.7c0-0.8-0.7-1.5-1.5-1.5h-1.9c-0.6,0-1-0.4-1-1c0-7.6-6.2-13.8-13.8-13.8H27    c-7.6,0-13.8,6.2-13.8,13.8c0,0.6-0.4,1-1,1H10c-4.2,0-7.5,3.4-7.5,7.5v1.7c0,0.5,0.4,0.9,0.9,0.9h3.8c0.5-2.3,2.5-4.1,5-4.1    s4.6,1.8,5,4.1h13.6c0.5-2.3,2.5-4.1,5-4.1S40.4,32.1,40.8,34.4z"></path></g></g></svg>